<svg width="14" height="16" viewBox="0 0 14 16" fill="none" xmlns="http://www.w3.org/2000/svg">
<path d="M13.625 5H13V7H13.625C13.875 7 14 7.125 14 7.375V8.625C14 8.875 13.875 9 13.625 9H13V11H13.625C13.875 11 14 11.125 14 11.375V12.625C14 12.875 13.875 13 13.625 13H13V14C13 14.5417 12.8021 15.0104 12.4062 15.4062C12.0104 15.8021 11.5417 16 11 16H2C1.45833 16 0.989583 15.8021 0.59375 15.4062C0.197917 15.0104 0 14.5417 0 14V2C0 1.45833 0.197917 0.989583 0.59375 0.59375C0.989583 0.197917 1.45833 0 2 0H11C11.5417 0 12.0104 0.197917 12.4062 0.59375C12.8021 0.989583 13 1.45833 13 2V3H13.625C13.875 3 14 3.125 14 3.375V4.625C14 4.875 13.875 5 13.625 5ZM12 14V2C12 1.72917 11.8958 1.5 11.6875 1.3125C11.5 1.10417 11.2708 1 11 1H2C1.72917 1 1.48958 1.10417 1.28125 1.3125C1.09375 1.5 1 1.72917 1 2V14C1 14.2708 1.09375 14.5 1.28125 14.6875C1.48958 14.8958 1.72917 15 2 15H11C11.2708 15 11.5 14.8958 11.6875 14.6875C11.8958 14.5 12 14.2708 12 14ZM8.25 7.78125C7.77083 8.26042 7.1875 8.5 6.5 8.5C5.8125 8.5 5.21875 8.26042 4.71875 7.78125C4.23958 7.28125 4 6.6875 4 6C4 5.3125 4.23958 4.72917 4.71875 4.25C5.21875 3.75 5.8125 3.5 6.5 3.5C7.1875 3.5 7.77083 3.75 8.25 4.25C8.75 4.72917 9 5.3125 9 6C9 6.6875 8.75 7.28125 8.25 7.78125ZM7.5625 4.9375C7.27083 4.64583 6.91667 4.5 6.5 4.5C6.08333 4.5 5.72917 4.64583 5.4375 4.9375C5.14583 5.22917 5 5.58333 5 6C5 6.41667 5.14583 6.77083 5.4375 7.0625C5.72917 7.35417 6.08333 7.5 6.5 7.5C6.91667 7.5 7.27083 7.35417 7.5625 7.0625C7.85417 6.77083 8 6.41667 8 6C8 5.58333 7.85417 5.22917 7.5625 4.9375ZM7.96875 9C8.69792 9 9.26042 9.28125 9.65625 9.84375C9.88542 10.1979 10 10.5938 10 11.0312V12.25C10 12.4167 9.91667 12.5 9.75 12.5H9.25C9.08333 12.5 9 12.4167 9 12.25V11.0312C9 10.8021 8.9375 10.5938 8.8125 10.4062C8.625 10.1354 8.34375 10 7.96875 10C7.86458 10 7.66667 10.0417 7.375 10.125C7.10417 10.1875 6.8125 10.2188 6.5 10.2188C6.1875 10.2188 5.88542 10.1875 5.59375 10.125C5.32292 10.0417 5.13542 10 5.03125 10C4.65625 10 4.375 10.1354 4.1875 10.4062C4.0625 10.5938 4 10.8021 4 11.0312V12.25C4 12.4167 3.91667 12.5 3.75 12.5H3.25C3.08333 12.5 3 12.4167 3 12.25V11.0312C3 10.5938 3.11458 10.1979 3.34375 9.84375C3.73958 9.28125 4.30208 9 5.03125 9C5.23958 9 5.46875 9.04167 5.71875 9.125C5.98958 9.1875 6.25 9.21875 6.5 9.21875C6.75 9.21875 7 9.1875 7.25 9.125C7.52083 9.04167 7.76042 9 7.96875 9Z" fill="black"/>
</svg>
